1Ano/ISD/Praticas/Quartus/aula7/simulation/qsim/MuxDemo.msim.vcd
$comment
	File created using the following command:
		vcd file MuxDemo.msim.vcd -direction
$end
$date
	Tue Nov 14 12:29:22 2023
$end
$version
	Questa Intel Starter FPGA Edition Version 2021.2
$end
$timescale
	1ps
$end

$scope module MuxDemo_vlg_vec_tst $end
$var reg 1 ! I0 $end
$var reg 1 " I1 $end
$var reg 1 # S $end
$var wire 1 $ Y $end

$scope module i1 $end
$var wire 1 % gnd $end
$var wire 1 & vcc $end
$var wire 1 ' unknown $end
$var tri1 1 ( devclrn $end
$var tri1 1 ) devpor $end
$var tri1 1 * devoe $end
$var wire 1 + Y~output_o $end
$var wire 1 , I1~input_o $end
$var wire 1 - I0~input_o $end
$var wire 1 . S~input_o $end
$var wire 1 / inst3~0_combout $end
$upscope $end
$upscope $end
$enddefinitions $end
#0
$dumpvars
0!
0"
0#
0$
0%
1&
x'
1(
1)
1*
0+
0,
0-
0.
0/
$end
#100000
1#
1.
#200000
1"
0#
1,
0.
#300000
1#
1.
1/
1+
1$
#400000
1!
0"
0#
1-
0,
0.
#500000
1#
1.
0/
0+
0$
#600000
1"
0#
1,
0.
1/
1+
1$
#700000
1#
1.
#800000
0!
0"
0#
0-
0,
0.
0/
0+
0$
#900000
1#
1.
