1Ano/ISD/recurso/ProjetosQuartus/BCD_7Seg/simulation/qsim/BCD_7SegProj.msim.vcd
$comment
	File created using the following command:
		vcd file BCD_7SegProj.msim.vcd -direction
$end
$date
	Wed Jan 24 14:26:28 2024
$end
$version
	Questa Intel Starter FPGA Edition Version 2021.2
$end
$timescale
	1ps
$end

$scope module bcd_7segproj_vhd_vec_tst $end
$var wire 1 ! a $end
$var wire 1 " B [3] $end
$var wire 1 # B [2] $end
$var wire 1 $ B [1] $end
$var wire 1 % B [0] $end
$var wire 1 & c $end
$var wire 1 ' d $end
$var wire 1 ( e $end
$var wire 1 ) f $end
$var wire 1 * g $end
$var wire 1 + min $end

$scope module i1 $end
$var wire 1 , gnd $end
$var wire 1 - vcc $end
$var wire 1 . unknown $end
$var wire 1 / devoe $end
$var wire 1 0 devclrn $end
$var wire 1 1 devpor $end
$var wire 1 2 ww_devoe $end
$var wire 1 3 ww_devclrn $end
$var wire 1 4 ww_devpor $end
$var wire 1 5 ww_a $end
$var wire 1 6 ww_B [3] $end
$var wire 1 7 ww_B [2] $end
$var wire 1 8 ww_B [1] $end
$var wire 1 9 ww_B [0] $end
$var wire 1 : ww_c $end
$var wire 1 ; ww_d $end
$var wire 1 < ww_e $end
$var wire 1 = ww_f $end
$var wire 1 > ww_g $end
$var wire 1 ? ww_min $end
$var wire 1 @ \a~output_o\ $end
$var wire 1 A \c~output_o\ $end
$var wire 1 B \d~output_o\ $end
$var wire 1 C \e~output_o\ $end
$var wire 1 D \f~output_o\ $end
$var wire 1 E \g~output_o\ $end
$var wire 1 F \min~output_o\ $end
$var wire 1 G \B[0]~input_o\ $end
$var wire 1 H \B[1]~input_o\ $end
$var wire 1 I \B[2]~input_o\ $end
$var wire 1 J \B[3]~input_o\ $end
$var wire 1 K \inst~0_combout\ $end
$var wire 1 L \inst2~0_combout\ $end
$var wire 1 M \inst3~0_combout\ $end
$var wire 1 N \inst3~1_combout\ $end
$var wire 1 O \inst6~0_combout\ $end
$var wire 1 P \inst7~0_combout\ $end
$var wire 1 Q \inst1~0_combout\ $end
$var wire 1 R \ALT_INV_inst3~1_combout\ $end
$upscope $end
$upscope $end
$enddefinitions $end
#0
$dumpvars
1!
1&
1'
1(
1)
0*
1+
0,
1-
x.
1/
10
11
12
13
14
15
1:
1;
1<
1=
0>
1?
1@
1A
1B
1C
1D
0E
1F
0G
0H
0I
0J
1K
1L
1M
0N
1O
0P
1Q
1R
0"
0#
0$
0%
06
07
08
09
$end
#40000
1"
16
1J
1P
1E
1>
1*
#80000
0"
1#
17
06
0J
1I
0K
0M
1N
0R
0B
0@
0C
0;
05
0<
0'
0!
0(
#120000
1"
16
1J
0L
0O
0P
0Q
0F
0E
0D
0A
0?
0>
0=
0:
0+
0*
0)
0&
#160000
0"
0#
1$
18
07
06
0J
0I
1H
1K
1M
0N
1P
1Q
1R
1F
1E
1B
1@
1C
1?
1>
1;
15
1<
1+
1*
1'
1!
1(
#200000
1"
16
1J
0K
0M
1N
0P
0Q
0R
0F
0E
0B
0@
0C
0?
0>
0;
05
0<
0+
0*
0'
0!
0(
#240000
0"
1#
17
06
0J
1I
1K
1L
1M
0N
1O
1P
1R
1E
1D
1B
1A
1@
1C
1>
1=
1;
1:
15
1<
1*
1)
1'
1&
1!
1(
#280000
1"
16
1J
0K
0L
0M
1N
0O
0P
0R
0E
0D
0B
0A
0@
0C
0>
0=
0;
0:
05
0<
0*
0)
0'
0&
0!
0(
#320000
0"
0#
0$
1%
19
08
07
06
0J
0I
0H
1G
1L
1Q
1F
1A
1?
1:
1+
1&
#360000
1"
16
1J
1K
1M
1O
1P
1E
1D
1B
1@
1>
1=
1;
15
1*
1)
1'
1!
#400000
0"
0%
09
06
0J
0G
0N
0P
1R
0E
1C
0>
1<
0*
1(
